<svg width="41" height="41" viewBox="0 0 41 41" fill="none" xmlns="http://www.w3.org/2000/svg">
<path d="M20.5 0C21.991 10.6433 30.3567 19.009 41 20.5C30.3567 21.991 21.991 30.3567 20.5 41C19.009 30.3567 10.6433 21.991 0 20.5C10.6433 19.009 19.009 10.6433 20.5 0Z" fill="#FFB443"/>
</svg>
